<svg width="34" height="34" version="1.1" xmlns="http://www.w3.org/2000/svg" xmlns:xlink="http://www.w3.org/1999/xlink">
    <circle cx="17" cy="17" r="15" fill="black" />
    <circle cx="17" cy="17" r="14" fill="white"/>
    <g stroke-width="3" stroke="black">
        <line x1="9" y1="9" x2="25" y2="25" />
        <line x1="9" y1="25" x2="25" y2="9" />
    </g>
</svg>